%YAML 1.1
%TAG !u! tag:unity3d.com,2011:
--- !u!21 &2100000
Material:
  serializedVersion: 6
  m_ObjectHideFlags: 0
  m_PrefabParentObject: {fileID: 0}
  m_PrefabInternal: {fileID: 0}
  m_Name: Skybox Material 1
  m_Shader: {fileID: 104, guid: 0000000000000000f000000000000000, type: 0}
  m_ShaderKeywords: _EMISSION _EMISSIONMAP _LIGHTMAPPING_DYNAMIC_LIGHTMAPS _LIGHTMAPPING_REALTIME
    _UVSEC_UV1
  m_LightmapFlags: 1
  m_EnableInstancingVariants: 0
  m_DoubleSidedGI: 0
  m_CustomRenderQueue: -1
  stringTagMap: {}
  disabledShaderPasses: []
  m_SavedProperties:
    serializedVersion: 3
    m_TexEnvs:
    - _BackTex:
        m_Texture: {fileID: 2800000, guid: bad5a29ccf1a1413d9ac3c1686387858, type: 3}
        m_Scale: {x: 1, y: 1}
        m_Offset: {x: 0, y: 0}
    - _BumpMap:
        m_Texture: {fileID: 0}
        m_Scale: {x: 1, y: 1}
        m_Offset: {x: 0, y: 0}
    - _DetailAlbedoMap:
        m_Texture: {fileID: 0}
        m_Scale: {x: 1, y: 1}
        m_Offset: {x: 0, y: 0}
    - _DetailMask:
        m_Texture: {fileID: 0}
        m_Scale: {x: 1, y: 1}
        m_Offset: {x: 0, y: 0}
    - _DetailNormalMap:
        m_Texture: {fileID: 0}
        m_Scale: {x: 1, y: 1}
        m_Offset: {x: 0, y: 0}
    - _DownTex:
        m_Texture: {fileID: 2800000, guid: bad5a29ccf1a1413d9ac3c1686387858, type: 3}
        m_Scale: {x: 1, y: 1}
        m_Offset: {x: 0, y: 0}
    - _EmissionMap:
        m_Texture: {fileID: 2800000, guid: a196fd6788131ec459bfb26012466fc1, type: 3}
        m_Scale: {x: 1, y: 1}
        m_Offset: {x: 0, y: 0}
    - _FrontTex:
        m_Texture: {fileID: 2800000, guid: bad5a29ccf1a1413d9ac3c1686387858, type: 3}
        m_Scale: {x: 1, y: 1}
        m_Offset: {x: 0, y: 0}
    - _LeftTex:
        m_Texture: {fileID: 2800000, guid: bad5a29ccf1a1413d9ac3c1686387858, type: 3}
        m_Scale: {x: 1, y: 1}
        m_Offset: {x: 0, y: 0}
    - _MainTex:
        m_Texture: {fileID: 2800000, guid: 86e4aa9207c9e2740b6ace599d659c05, type: 3}
        m_Scale: {x: 1, y: 1}
        m_Offset: {x: 0, y: 0}
    - _MetallicGlossMap:
        m_Texture: {fileID: 0}
        m_Scale: {x: 1, y: 1}
        m_Offset: {x: 0, y: 0}
    - _Occlusion:
        m_Texture: {fileID: 0}
        m_Scale: {x: 1, y: 1}
        m_Offset: {x: 0, y: 0}
    - _OcclusionMap:
        m_Texture: {fileID: 0}
        m_Scale: {x: 1, y: 1}
        m_Offset: {x: 0, y: 0}
    - _ParallaxMap:
        m_Texture: {fileID: 0}
        m_Scale: {x: 1, y: 1}
        m_Offset: {x: 0, y: 0}
    - _RightTex:
        m_Texture: {fileID: 2800000, guid: bad5a29ccf1a1413d9ac3c1686387858, type: 3}
        m_Scale: {x: 1, y: 1}
        m_Offset: {x: 0, y: 0}
    - _SpecGlossMap:
        m_Texture: {fileID: 0}
        m_Scale: {x: 1, y: 1}
        m_Offset: {x: 0, y: 0}
    - _Tex:
        m_Texture: {fileID: 8900000, guid: b995d4bd9d11078d11005b9844295342, type: 3}
        m_Scale: {x: 1, y: 1}
        m_Offset: {x: 0, y: 0}
    - _UpTex:
        m_Texture: {fileID: 2800000, guid: bad5a29ccf1a1413d9ac3c1686387858, type: 3}
        m_Scale: {x: 1, y: 1}
        m_Offset: {x: 0, y: 0}
    m_Floats:
    - _AlphaTestRef: 0.5
    - _AtmosphereThickness: 3.38
    - _BumpScale: 1
    - _Cutoff: 0.5
    - _DetailNormalMapScale: 1
    - _DstBlend: 0
    - _EmissionScaleUI: 2
    - _Exposure: 0.3
    - _Glossiness: 0.1
    - _Lightmapping: 1
    - _Metallic: 0.1
    - _Mode: 0
    - _OcclusionStrength: 1
    - _Parallax: 0.02
    - _Rotation: 0
    - _SrcBlend: 1
    - _SunSize: 0.807
    - _UVSec: 0
    - _ZWrite: 1
    m_Colors:
    - _Color: {r: 0.30882353, g: 1, b: 0.82839745, a: 1}
    - _EmissionColor: {r: 1.3348337, g: 1.3348337, b: 1.3348337, a: 1.3348337}
    - _EmissionColorUI: {r: 0, g: 0, b: 0, a: 1}
    - _EmissionColorWithMapUI: {r: 1, g: 1, b: 1, a: 1}
    - _GroundColor: {r: 0.369, g: 0.349, b: 0.341, a: 1}
    - _SkyTint: {r: 0, g: 0, b: 0, a: 1}
    - _SpecColor: {r: 0, g: 0, b: 0, a: 1}
    - _SpecularColor: {r: 0.15686275, g: 0.15686275, b: 0.15686275, a: 1}
    - _Tint: {r: 0.16290008, g: 0.3340062, b: 0.9632353, a: 1}
